\relax 
\providecommand*{\memsetcounter}[2]{}
\providecommand\babel@aux[2]{}
\@nameuse{bbl@beforestart}
\catcode `"\active 
\babel@aux{latin}{}
\babel@aux{latin}{}
\babel@aux{latin}{}
\babel@aux{english}{}
\babel@aux{latin}{}
\babel@aux{latin}{}
\babel@aux{latin}{}
\babel@aux{english}{}
\babel@aux{latin}{}
\babel@aux{english}{}
\babel@aux{english}{}
\babel@aux{english}{}
\babel@aux{latin}{}
\babel@aux{english}{}
\babel@aux{english}{}
\babel@aux{latin}{}
\babel@aux{english}{}
\babel@aux{english}{}
\babel@aux{english}{}
\babel@aux{latin}{}
\babel@aux{english}{}
\babel@aux{english}{}
\babel@aux{latin}{}
\babel@aux{english}{}
\babel@aux{english}{}
\babel@aux{english}{}
\babel@aux{latin}{}
\babel@aux{english}{}
\babel@aux{english}{}
\babel@aux{latin}{}
\babel@aux{english}{}
\babel@aux{english}{}
\babel@aux{english}{}
\babel@aux{latin}{}
\babel@aux{english}{}
\babel@aux{english}{}
\babel@aux{latin}{}
\babel@aux{english}{}
\babel@aux{english}{}
\babel@aux{english}{}
\babel@aux{latin}{}
\babel@aux{english}{}
\babel@aux{english}{}
\babel@aux{latin}{}
\babel@aux{english}{}
\babel@aux{english}{}
\babel@aux{english}{}
\babel@aux{latin}{}
\babel@aux{english}{}
\babel@aux{english}{}
\babel@aux{latin}{}
\babel@aux{english}{}
\babel@aux{english}{}
\babel@aux{english}{}
\babel@aux{latin}{}
\babel@aux{english}{}
\babel@aux{english}{}
\babel@aux{latin}{}
\babel@aux{english}{}
\babel@aux{english}{}
\babel@aux{english}{}
\babel@aux{english}{}
\babel@aux{english}{}
\babel@aux{english}{}
\babel@aux{english}{}
\babel@aux{english}{}
\babel@aux{english}{}
\babel@aux{english}{}
\babel@aux{latin}{}
\babel@aux{latin}{}
\babel@aux{latin}{}
\babel@aux{english}{}
\babel@aux{latin}{}
\babel@aux{latin}{}
\babel@aux{latin}{}
\babel@aux{english}{}
\babel@aux{latin}{}
\babel@aux{english}{}
\babel@aux{english}{}
\babel@aux{english}{}
\babel@aux{latin}{}
\babel@aux{english}{}
\babel@aux{english}{}
\babel@aux{latin}{}
\babel@aux{english}{}
\babel@aux{english}{}
\babel@aux{english}{}
\babel@aux{latin}{}
\babel@aux{english}{}
\babel@aux{english}{}
\babel@aux{latin}{}
\babel@aux{english}{}
\babel@aux{english}{}
\babel@aux{english}{}
\babel@aux{latin}{}
\babel@aux{english}{}
\babel@aux{english}{}
\babel@aux{latin}{}
\babel@aux{english}{}
\babel@aux{english}{}
\babel@aux{english}{}
\babel@aux{latin}{}
\babel@aux{english}{}
\babel@aux{english}{}
\babel@aux{latin}{}
\babel@aux{english}{}
\babel@aux{english}{}
\babel@aux{english}{}
\babel@aux{latin}{}
\babel@aux{english}{}
\babel@aux{english}{}
\babel@aux{latin}{}
\babel@aux{english}{}
\babel@aux{english}{}
\babel@aux{english}{}
\babel@aux{latin}{}
\babel@aux{english}{}
\babel@aux{english}{}
\babel@aux{latin}{}
\babel@aux{english}{}
\babel@aux{english}{}
\babel@aux{english}{}
\babel@aux{latin}{}
\babel@aux{english}{}
\babel@aux{english}{}
\babel@aux{latin}{}
\babel@aux{english}{}
\babel@aux{english}{}
\babel@aux{english}{}
\babel@aux{latin}{}
\babel@aux{english}{}
\babel@aux{english}{}
\babel@aux{latin}{}
\babel@aux{english}{}
\babel@aux{english}{}
\babel@aux{english}{}
\babel@aux{english}{}
\babel@aux{english}{}
\babel@aux{english}{}
\babel@aux{english}{}
\babel@aux{english}{}
\babel@aux{english}{}
\babel@aux{english}{}
\babel@aux{english}{}
\babel@aux{latin}{}
\babel@aux{latin}{}
\babel@aux{latin}{}
\babel@aux{english}{}
\babel@aux{latin}{}
\babel@aux{latin}{}
\babel@aux{latin}{}
\babel@aux{english}{}
\babel@aux{latin}{}
\babel@aux{english}{}
\babel@aux{english}{}
\babel@aux{english}{}
\babel@aux{latin}{}
\babel@aux{english}{}
\babel@aux{english}{}
\babel@aux{latin}{}
\babel@aux{english}{}
\babel@aux{english}{}
\babel@aux{english}{}
\babel@aux{latin}{}
\babel@aux{english}{}
\babel@aux{english}{}
\babel@aux{latin}{}
\babel@aux{english}{}
\babel@aux{english}{}
\babel@aux{english}{}
\babel@aux{latin}{}
\babel@aux{english}{}
\babel@aux{english}{}
\babel@aux{latin}{}
\babel@aux{english}{}
\babel@aux{english}{}
\babel@aux{english}{}
\babel@aux{latin}{}
\babel@aux{english}{}
\babel@aux{english}{}
\babel@aux{latin}{}
\babel@aux{english}{}
\babel@aux{english}{}
\babel@aux{english}{}
\babel@aux{latin}{}
\babel@aux{english}{}
\babel@aux{english}{}
\babel@aux{latin}{}
\babel@aux{english}{}
\babel@aux{english}{}
\babel@aux{english}{}
\babel@aux{english}{}
\babel@aux{english}{}
\babel@aux{english}{}
\babel@aux{english}{}
\babel@aux{english}{}
\babel@aux{latin}{}
\@writefile{toc}{\contentsline {subsection}{Hymn}{7}\protected@file@percent }
\@writefile{toc}{\contentsline {subsection}{Little Chapter}{8}\protected@file@percent }
\babel@aux{latin}{}
\babel@aux{latin}{}
\babel@aux{english}{}
\babel@aux{latin}{}
\babel@aux{english}{}
\babel@aux{english}{}
\babel@aux{latin}{}
\babel@aux{english}{}
\babel@aux{english}{}
\babel@aux{latin}{}
\babel@aux{english}{}
\babel@aux{english}{}
\babel@aux{english}{}
\babel@aux{english}{}
\babel@aux{english}{}
\babel@aux{latin}{}
\babel@aux{latin}{}
\babel@aux{latin}{}
\babel@aux{english}{}
\babel@aux{latin}{}
\babel@aux{english}{}
\babel@aux{english}{}
\babel@aux{latin}{}
\babel@aux{english}{}
\babel@aux{english}{}
\babel@aux{latin}{}
\babel@aux{english}{}
\babel@aux{english}{}
\babel@aux{english}{}
\babel@aux{english}{}
\babel@aux{english}{}
\babel@aux{latin}{}
\newlabel{collect}{{\M@TitleReference {}{Collect}}{15}}
\babel@aux{latin}{}
\babel@aux{latin}{}
\babel@aux{english}{}
\babel@aux{latin}{}
\babel@aux{english}{}
\babel@aux{english}{}
\babel@aux{latin}{}
\babel@aux{english}{}
\babel@aux{english}{}
\babel@aux{latin}{}
\babel@aux{english}{}
\babel@aux{english}{}
\babel@aux{latin}{}
\babel@aux{english}{}
\babel@aux{english}{}
\babel@aux{latin}{}
\babel@aux{english}{}
\babel@aux{english}{}
\babel@aux{latin}{}
\babel@aux{english}{}
\babel@aux{english}{}
\babel@aux{english}{}
\babel@aux{english}{}
\babel@aux{english}{}
\babel@aux{english}{}
\babel@aux{english}{}
\babel@aux{english}{}
\babel@aux{latin}{}
\babel@aux{latin}{}
\babel@aux{latin}{}
\babel@aux{english}{}
\babel@aux{latin}{}
\babel@aux{english}{}
\babel@aux{english}{}
\babel@aux{latin}{}
\babel@aux{english}{}
\babel@aux{english}{}
\babel@aux{latin}{}
\babel@aux{english}{}
\babel@aux{english}{}
\babel@aux{latin}{}
\babel@aux{english}{}
\babel@aux{english}{}
\babel@aux{latin}{}
\babel@aux{english}{}
\babel@aux{english}{}
\babel@aux{english}{}
\babel@aux{english}{}
\babel@aux{english}{}
\babel@aux{english}{}
\babel@aux{english}{}
\babel@aux{latin}{}
\babel@aux{latin}{}
\babel@aux{latin}{}
\babel@aux{english}{}
\babel@aux{latin}{}
\babel@aux{english}{}
\babel@aux{english}{}
\babel@aux{latin}{}
\babel@aux{english}{}
\babel@aux{english}{}
\babel@aux{latin}{}
\babel@aux{english}{}
\babel@aux{english}{}
\babel@aux{english}{}
\babel@aux{english}{}
\babel@aux{english}{}
\babel@aux{latin}{}
\babel@aux{latin}{}
\babel@aux{latin}{}
\babel@aux{english}{}
\babel@aux{latin}{}
\babel@aux{english}{}
\babel@aux{english}{}
\babel@aux{latin}{}
\babel@aux{english}{}
\babel@aux{english}{}
\babel@aux{latin}{}
\babel@aux{english}{}
\babel@aux{english}{}
\babel@aux{english}{}
\babel@aux{english}{}
\babel@aux{english}{}
\babel@aux{latin}{}
\babel@aux{latin}{}
\babel@aux{latin}{}
\babel@aux{english}{}
\babel@aux{latin}{}
\babel@aux{english}{}
\babel@aux{english}{}
\babel@aux{english}{}
\babel@aux{latin}{}
\babel@aux{latin}{}
\babel@aux{latin}{}
\babel@aux{english}{}
\babel@aux{latin}{}
\babel@aux{english}{}
\babel@aux{english}{}
\babel@aux{latin}{}
\babel@aux{english}{}
\babel@aux{english}{}
\babel@aux{latin}{}
\babel@aux{english}{}
\babel@aux{english}{}
\babel@aux{english}{}
\babel@aux{english}{}
\babel@aux{english}{}
\babel@aux{latin}{}
\babel@aux{latin}{}
\babel@aux{latin}{}
\babel@aux{english}{}
\babel@aux{latin}{}
\babel@aux{english}{}
\babel@aux{english}{}
\babel@aux{english}{}
\babel@aux{latin}{}
\babel@aux{latin}{}
\babel@aux{latin}{}
\babel@aux{english}{}
\babel@aux{latin}{}
\babel@aux{english}{}
\babel@aux{english}{}
\babel@aux{latin}{}
\babel@aux{english}{}
\babel@aux{english}{}
\babel@aux{latin}{}
\babel@aux{english}{}
\babel@aux{english}{}
\babel@aux{english}{}
\babel@aux{english}{}
\babel@aux{english}{}
\babel@aux{latin}{}
\babel@aux{latin}{}
\babel@aux{latin}{}
\babel@aux{english}{}
\babel@aux{latin}{}
\babel@aux{english}{}
\babel@aux{english}{}
\babel@aux{english}{}
\babel@aux{latin}{}
\babel@aux{latin}{}
\babel@aux{latin}{}
\babel@aux{english}{}
\babel@aux{latin}{}
\babel@aux{english}{}
\babel@aux{english}{}
\babel@aux{latin}{}
\babel@aux{english}{}
\babel@aux{english}{}
\babel@aux{latin}{}
\babel@aux{english}{}
\babel@aux{english}{}
\babel@aux{english}{}
\babel@aux{english}{}
\babel@aux{english}{}
\babel@aux{latin}{}
\babel@aux{latin}{}
\babel@aux{latin}{}
\babel@aux{english}{}
\babel@aux{latin}{}
\babel@aux{english}{}
\babel@aux{english}{}
\babel@aux{english}{}
\babel@aux{latin}{}
\memsetcounter{lastsheet}{23}
\memsetcounter{lastpage}{23}
