\relax 
\providecommand*{\memsetcounter}[2]{}
\providecommand\babel@aux[2]{}
\@nameuse{bbl@beforestart}
\catcode `"\active 
\babel@aux{british}{}
\@writefile{lof}{\addvspace {10pt}}
\@writefile{lot}{\addvspace {10pt}}
\@writefile{toc}{\contentsline {chapter}{\chapternumberline {1}The Beginning}{2}\protected@file@percent }
\@writefile{toc}{\contentsline {section}{\numberline {1.1}Hymn}{3}\protected@file@percent }
\@writefile{lof}{\addvspace {10pt}}
\@writefile{lot}{\addvspace {10pt}}
\@writefile{toc}{\contentsline {chapter}{\chapternumberline {2}Psalmody}{4}\protected@file@percent }
\@writefile{toc}{\contentsline {section}{\numberline {2.1}Psalms Outside Advent and Christmas}{4}\protected@file@percent }
\@writefile{toc}{\contentsline {subsection}{Psalm 53}{5}\protected@file@percent }
\babel@aux{latin}{}
\babel@aux{british}{}
\babel@aux{latin}{}
\babel@aux{british}{}
\babel@aux{latin}{}
\babel@aux{british}{}
\babel@aux{latin}{}
\babel@aux{british}{}
\babel@aux{latin}{}
\babel@aux{british}{}
\babel@aux{latin}{}
\babel@aux{british}{}
\babel@aux{latin}{}
\babel@aux{british}{}
\babel@aux{latin}{}
\babel@aux{british}{}
\@writefile{toc}{\contentsline {subsection}{Psalm 84}{6}\protected@file@percent }
\babel@aux{latin}{}
\babel@aux{british}{}
\babel@aux{latin}{}
\babel@aux{british}{}
\babel@aux{latin}{}
\babel@aux{british}{}
\babel@aux{latin}{}
\babel@aux{british}{}
\babel@aux{latin}{}
\babel@aux{british}{}
\babel@aux{latin}{}
\babel@aux{british}{}
\babel@aux{latin}{}
\babel@aux{british}{}
\babel@aux{latin}{}
\babel@aux{british}{}
\babel@aux{latin}{}
\babel@aux{british}{}
\babel@aux{latin}{}
\babel@aux{british}{}
\babel@aux{latin}{}
\babel@aux{british}{}
\babel@aux{latin}{}
\babel@aux{british}{}
\babel@aux{latin}{}
\babel@aux{british}{}
\babel@aux{latin}{}
\babel@aux{british}{}
\babel@aux{latin}{}
\babel@aux{british}{}
\@writefile{toc}{\contentsline {subsection}{Psalm 116}{7}\protected@file@percent }
\@writefile{toc}{\contentsline {section}{\numberline {2.2}Psalms in Advent}{8}\protected@file@percent }
\newlabel{missusest}{{\M@TitleReference {2.2}{Psalms in Advent}}{8}}
\babel@aux{latin}{}
\babel@aux{british}{}
\babel@aux{english}{}
\babel@aux{british}{}
\babel@aux{latin}{}
\babel@aux{british}{}
\babel@aux{english}{}
\babel@aux{british}{}
\babel@aux{latin}{}
\babel@aux{british}{}
\babel@aux{english}{}
\babel@aux{british}{}
\babel@aux{latin}{}
\babel@aux{british}{}
\babel@aux{english}{}
\babel@aux{british}{}
\babel@aux{latin}{}
\babel@aux{british}{}
\babel@aux{english}{}
\babel@aux{british}{}
\babel@aux{latin}{}
\babel@aux{british}{}
\babel@aux{english}{}
\babel@aux{british}{}
\babel@aux{latin}{}
\babel@aux{british}{}
\babel@aux{english}{}
\babel@aux{british}{}
\babel@aux{latin}{}
\babel@aux{british}{}
\babel@aux{english}{}
\babel@aux{british}{}
\babel@aux{latin}{}
\babel@aux{british}{}
\babel@aux{english}{}
\babel@aux{british}{}
\babel@aux{latin}{}
\babel@aux{british}{}
\babel@aux{english}{}
\babel@aux{british}{}
\babel@aux{latin}{}
\babel@aux{british}{}
\babel@aux{english}{}
\babel@aux{british}{}
\babel@aux{latin}{}
\babel@aux{british}{}
\babel@aux{english}{}
\babel@aux{british}{}
\babel@aux{latin}{}
\babel@aux{british}{}
\babel@aux{english}{}
\babel@aux{british}{}
\babel@aux{latin}{}
\babel@aux{british}{}
\babel@aux{english}{}
\babel@aux{british}{}
\babel@aux{latin}{}
\babel@aux{british}{}
\babel@aux{english}{}
\babel@aux{british}{}
\babel@aux{latin}{}
\babel@aux{british}{}
\babel@aux{english}{}
\babel@aux{british}{}
\babel@aux{latin}{}
\babel@aux{british}{}
\babel@aux{english}{}
\babel@aux{british}{}
\babel@aux{latin}{}
\babel@aux{british}{}
\babel@aux{english}{}
\babel@aux{british}{}
\babel@aux{latin}{}
\babel@aux{british}{}
\babel@aux{english}{}
\babel@aux{british}{}
\babel@aux{latin}{}
\babel@aux{british}{}
\babel@aux{english}{}
\babel@aux{british}{}
\babel@aux{latin}{}
\babel@aux{british}{}
\babel@aux{english}{}
\babel@aux{british}{}
\babel@aux{latin}{}
\babel@aux{british}{}
\babel@aux{english}{}
\babel@aux{british}{}
\babel@aux{latin}{}
\babel@aux{british}{}
\babel@aux{english}{}
\babel@aux{british}{}
\babel@aux{latin}{}
\babel@aux{british}{}
\babel@aux{english}{}
\babel@aux{british}{}
\babel@aux{latin}{}
\babel@aux{british}{}
\babel@aux{english}{}
\babel@aux{british}{}
\babel@aux{latin}{}
\babel@aux{british}{}
\babel@aux{english}{}
\babel@aux{british}{}
\babel@aux{latin}{}
\babel@aux{british}{}
\babel@aux{english}{}
\babel@aux{british}{}
\babel@aux{latin}{}
\babel@aux{british}{}
\babel@aux{english}{}
\babel@aux{british}{}
\babel@aux{latin}{}
\babel@aux{british}{}
\babel@aux{english}{}
\babel@aux{british}{}
\@writefile{toc}{\contentsline {section}{\numberline {2.3}Psalms in Christmastide}{12}\protected@file@percent }
\newlabel{oadmirabile}{{\M@TitleReference {2.3}{Psalms in Christmastide}}{12}}
\babel@aux{latin}{}
\babel@aux{british}{}
\babel@aux{english}{}
\babel@aux{british}{}
\babel@aux{latin}{}
\babel@aux{british}{}
\babel@aux{english}{}
\babel@aux{british}{}
\babel@aux{latin}{}
\babel@aux{british}{}
\babel@aux{english}{}
\babel@aux{british}{}
\babel@aux{latin}{}
\babel@aux{british}{}
\babel@aux{english}{}
\babel@aux{british}{}
\babel@aux{latin}{}
\babel@aux{british}{}
\babel@aux{english}{}
\babel@aux{british}{}
\babel@aux{latin}{}
\babel@aux{british}{}
\babel@aux{english}{}
\babel@aux{british}{}
\babel@aux{latin}{}
\babel@aux{british}{}
\babel@aux{english}{}
\babel@aux{british}{}
\babel@aux{latin}{}
\babel@aux{british}{}
\babel@aux{english}{}
\babel@aux{british}{}
\babel@aux{latin}{}
\babel@aux{british}{}
\babel@aux{english}{}
\babel@aux{british}{}
\babel@aux{latin}{}
\babel@aux{british}{}
\babel@aux{english}{}
\babel@aux{british}{}
\babel@aux{latin}{}
\babel@aux{british}{}
\babel@aux{english}{}
\babel@aux{british}{}
\babel@aux{latin}{}
\babel@aux{british}{}
\babel@aux{english}{}
\babel@aux{british}{}
\babel@aux{latin}{}
\babel@aux{british}{}
\babel@aux{english}{}
\babel@aux{british}{}
\babel@aux{latin}{}
\babel@aux{british}{}
\babel@aux{english}{}
\babel@aux{british}{}
\babel@aux{latin}{}
\babel@aux{british}{}
\babel@aux{english}{}
\babel@aux{british}{}
\babel@aux{latin}{}
\babel@aux{british}{}
\babel@aux{english}{}
\babel@aux{british}{}
\babel@aux{latin}{}
\babel@aux{british}{}
\babel@aux{english}{}
\babel@aux{british}{}
\babel@aux{latin}{}
\babel@aux{british}{}
\babel@aux{english}{}
\babel@aux{british}{}
\babel@aux{latin}{}
\babel@aux{british}{}
\babel@aux{english}{}
\babel@aux{british}{}
\babel@aux{latin}{}
\babel@aux{british}{}
\babel@aux{english}{}
\babel@aux{british}{}
\babel@aux{latin}{}
\babel@aux{british}{}
\babel@aux{english}{}
\babel@aux{british}{}
\babel@aux{latin}{}
\babel@aux{british}{}
\babel@aux{english}{}
\babel@aux{british}{}
\babel@aux{latin}{}
\babel@aux{british}{}
\babel@aux{english}{}
\babel@aux{british}{}
\babel@aux{latin}{}
\babel@aux{british}{}
\babel@aux{english}{}
\babel@aux{british}{}
\babel@aux{latin}{}
\babel@aux{british}{}
\babel@aux{english}{}
\babel@aux{british}{}
\babel@aux{latin}{}
\babel@aux{british}{}
\babel@aux{english}{}
\babel@aux{british}{}
\babel@aux{latin}{}
\babel@aux{british}{}
\babel@aux{english}{}
\babel@aux{british}{}
\babel@aux{latin}{}
\babel@aux{british}{}
\babel@aux{english}{}
\babel@aux{british}{}
\babel@aux{latin}{}
\babel@aux{british}{}
\babel@aux{english}{}
\babel@aux{british}{}
\@writefile{lof}{\addvspace {10pt}}
\@writefile{lot}{\addvspace {10pt}}
\@writefile{toc}{\contentsline {chapter}{\chapternumberline {3}Little Chapter}{17}\protected@file@percent }
\newlabel{primechapteryear}{{\M@TitleReference {3}{Little Chapter}}{17}}
\babel@aux{latin}{}
\babel@aux{british}{}
\babel@aux{latin}{}
\babel@aux{british}{}
\babel@aux{latin}{}
\babel@aux{british}{}
\babel@aux{latin}{}
\babel@aux{british}{}
\newlabel{primechapteradvent}{{\M@TitleReference {3}{Little Chapter}}{17}}
\babel@aux{latin}{}
\babel@aux{british}{}
\babel@aux{latin}{}
\babel@aux{british}{}
\babel@aux{latin}{}
\babel@aux{british}{}
\babel@aux{latin}{}
\babel@aux{british}{}
\@writefile{lof}{\addvspace {10pt}}
\@writefile{lot}{\addvspace {10pt}}
\@writefile{toc}{\contentsline {chapter}{\chapternumberline {4}The End}{19}\protected@file@percent }
\babel@aux{latin}{}
\babel@aux{british}{}
\babel@aux{latin}{}
\babel@aux{british}{}
\babel@aux{latin}{}
\babel@aux{british}{}
\babel@aux{latin}{}
\babel@aux{british}{}
\babel@aux{latin}{}
\babel@aux{british}{}
\babel@aux{latin}{}
\babel@aux{british}{}
\babel@aux{latin}{}
\babel@aux{british}{}
\babel@aux{latin}{}
\babel@aux{british}{}
\babel@aux{latin}{}
\babel@aux{british}{}
\babel@aux{latin}{}
\babel@aux{british}{}
\babel@aux{latin}{}
\babel@aux{british}{}
\babel@aux{latin}{}
\babel@aux{british}{}
\babel@aux{latin}{}
\babel@aux{british}{}
\babel@aux{latin}{}
\babel@aux{british}{}
\babel@aux{latin}{}
\babel@aux{british}{}
\memsetcounter{lastsheet}{21}
\memsetcounter{lastpage}{21}
